…
>A token is a meaningful unit of text, such as a word, that we are interested in using for analysis, and tokenization is the process of splitting text into tokens. This one-token-per-row structure is in contrast to the ways text is often stored in current analyses, perhaps as strings or in a document-term matrix.

Let's use `unnest_tokens()` from the {tidytext} package to take our dataset of tweets and transform it into a dataset of words. 


```r
tokens <- 
  tweets %>%
  unnest_tokens(output = word, input = text)

tokens 
```

```
## # A tibble: 131,232 × 2
##    status_id           word       
##    <chr>               <chr>      
##  1 1163154266065735680 first      
##  2 1163154266065735680 tidytuesday
##  3 1163154266065735680 submission 
##  4 1163154266065735680 roman      
##  5 1163154266065735680 emperors   
##  6 1163154266065735680 and        
##  7 1163154266065735680 their      
##  8 1163154266065735680 rise       
##  9 1163154266065735680 to         
## 10 1163154266065735680 power      
## # … with 131,222 more rows
```
…
One final note before we start counting words: Remember when we first tokenized our dataset and we passed `unnest_tokens()` the argument `output = word`? We conveniently chose `word` as our column name because it matches the column name `word` in the `stop_words` dataset. This makes our call to `anti_join()` simpler because `anti_join()` knows to look for the column named `word` in each dataset. 

## Analysis: Counting Words 

Now it's time to start exploring our newly cleaned dataset of tweets. Computing the frequency of each word and seeing which words showed up the most often is a good start. We can pipe `tokens` to the `count` function to do this: 


```r
tokens %>% 
    count(word, sort = TRUE) 
```

```
## # A tibble: 15,334 × 2
##    word            n
##    <chr>       <int>
##  1 t.co         5432
##  2 https        5406
##  3 tidytuesday  4316
##  4 rstats       1748
##  5 data         1105
##  6 code          988
##  7 week          868
##  8 r4ds          675
##  9 dataviz       607
## 10 time          494
## # … with 15,324 more rows
```
…
We may want to explore further by showing the frequency of words as a percent of the whole dataset. Calculating percentages like this is useful in a lot of education scenarios because it helps us make comparisons across different sized groups. For example, you may want to calculate what percentage of students in each classroom receive special education services. 

In our tweets dataset, we'll be calculating the count of words as a percentage of all tweets. We can do that by using `mutate()` to add a column called `percent`. `percent` will divide `n` by `sum(n)`, which is the total number of words. Finally, will multiply the result by 100.


```r
tokens %>%
  count(word, sort = TRUE) %>%
  # n as a percent of total words
  mutate(percent = n / sum(n) * 100)
```

```
## # A tibble: 15,334 × 3
##    word            n percent
##    <chr>       <int>   <dbl>
##  1 t.co         5432   7.39 
##  2 https        5406   7.36 
##  3 tidytuesday  4316   5.87 
##  4 rstats       1748   2.38 
##  5 data         1105   1.50 
##  6 code          988   1.34 
##  7 week          868   1.18 
##  8 r4ds          675   0.919
##  9 dataviz       607   0.826
## 10 time          494   0.672
## # … with 15,324 more rows
```
…
