…
We can see how dummy coding works through using the {dummies} package, though,
as we will see, you often do not need to manually dummy code variables like
this.

Let's consider the `iris` data that comes built into R, but, since we are fans
of the {tidyverse}, we will first change it into a tibble.


```r
iris <- as_tibble(iris)
iris
```

```
## # A tibble: 150 x 5
##    Sepal.Length Sepal.Width Petal.Length Petal.Width Species
##           <dbl>       <dbl>        <dbl>       <dbl> <fct>  
##  1          5.1         3.5          1.4         0.2 setosa 
##  2          4.9         3            1.4         0.2 setosa 
##  3          4.7         3.2          1.3         0.2 setosa 
##  4          4.6         3.1          1.5         0.2 setosa 
##  5          5           3.6          1.4         0.2 setosa 
##  6          5.4         3.9          1.7         0.4 setosa 
##  7          4.6         3.4          1.4         0.3 setosa 
##  8          5           3.4          1.5         0.2 setosa 
##  9          4.4         2.9          1.4         0.2 setosa 
## 10          4.9         3.1          1.5         0.1 setosa 
## # … with 140 more rows
```
…
## Import Data

We will load a built-in dataset from the dataedu package. 


```r
sci_mo_data
```

```
## # A tibble: 550 x 20
##    pre_int pre_uv pre_percomp time_spent course_ID final_grade subject
##      <dbl>  <dbl>       <dbl>      <dbl> <chr>           <dbl> <chr>  
##  1     5     5            4        2168. AnPhA-S1…       93.8  AnPhA  
##  2     4.2   5            4.5      1550. FrScA-S1…       95.9  FrScA  
##  3     4.6   4.33         4.5       851. FrScA-S2…       88.4  FrScA  
##  4     5     4.33         4        3067. AnPhA-S2…       91.3  AnPhA  
##  5     4     3.67         3.5      1800. OcnA-S11…       88.7  OcnA   
##  6     4     4            4         182. BioA-S11…        6.75 BioA   
##  7     2.4   3.67        NA         264. OcnA-S21…       65.0  OcnA   
##  8     4.2   3.67         2.5       822. FrScA-S2…       89.9  FrScA  
##  9     4     4.33         4.5      2363. AnPhA-S2…       91.4  AnPhA  
## 10     4.2   2            3        1479. AnPhA-S1…       73.5  AnPhA  
## # … with 540 more rows, and 13 more variables: enrollment_reason <chr>,
## #   semester <chr>, enrollment_status <chr>, cogproc <dbl>, social <dbl>,
## #   posemo <dbl>, negemo <dbl>, n <dbl>, section <chr>, post_int <dbl>,
## #   post_uv <dbl>, post_percomp <dbl>, WC <dbl>
```
…
Let's return use online science class data and consider the effect (for a
student) of being in a specific class in the data set.

First, let's determine how many classes there are. We can use the `count()`
function to see how many courses there are.


```r
dat %>% 
  count(course_ID)
```

```
## # A tibble: 23 x 2
##    course_ID         n
##    <chr>         <int>
##  1 AnPhA-S116-01    56
##  2 AnPhA-S116-02    30
##  3 AnPhA-S216-01    44
##  4 AnPhA-S216-02    17
##  5 AnPhA-T116-01    11
##  6 BioA-S116-01     29
##  7 BioA-S216-01      1
##  8 BioA-T116-01      1
##  9 FrScA-S116-01    69
## 10 FrScA-S116-02    15
## # … with 13 more rows
```
…
