…
## View Data

Now that we've successfully loaded all three log-trace datasets, we can visually
inspect the data by typing the names that we assigned to each dataset. Running
each line, one at a time, will show the first several rows of each dataset.


```r
pre_survey
```

```
## # A tibble: 1,102 x 12
##    opdata_username opdata_CourseID Q1Maincellgroup… Q1Maincellgroup…
##    <chr>           <chr>                      <dbl>            <dbl>
##  1 _80624_1        FrScA-S116-01                  4                4
##  2 _80623_1        BioA-S116-01                   4                4
##  3 _82588_1        OcnA-S116-03                  NA               NA
##  4 _80623_1        AnPhA-S116-01                  4                3
##  5 _80624_1        AnPhA-S116-01                 NA               NA
##  6 _80624_1        AnPhA-S116-02                  4                2
##  7 _80624_1        AnPhA-T116-01                 NA               NA
##  8 _80624_1        BioA-S116-01                   5                3
##  9 _80624_1        BioA-T116-01                  NA               NA
## 10 _80624_1        PhysA-S116-01                  4                4
## # … with 1,092 more rows, and 8 more variables: Q1MaincellgroupRow3 <dbl>,
## #   Q1MaincellgroupRow4 <dbl>, Q1MaincellgroupRow5 <dbl>,
## #   Q1MaincellgroupRow6 <dbl>, Q1MaincellgroupRow7 <dbl>,
## #   Q1MaincellgroupRow8 <dbl>, Q1MaincellgroupRow9 <dbl>,
## #   Q1MaincellgroupRow10 <dbl>
```

```r
course_data
```

```
## # A tibble: 29,711 x 8
##    CourseSectionOr… Bb_UserPK Gradebook_Item Grade_Category FinalGradeCEMS
##    <chr>                <dbl> <chr>          <chr>                   <dbl>
##  1 AnPhA-S116-01        60186 POINTS EARNED… <NA>                     86.3
##  2 AnPhA-S116-01        60186 WORK ATTEMPTED <NA>                     86.3
##  3 AnPhA-S116-01        60186 0.1: Message … <NA>                     86.3
##  4 AnPhA-S116-01        60186 0.2: Intro As… Hw                       86.3
##  5 AnPhA-S116-01        60186 0.3: Intro As… Hw                       86.3
##  6 AnPhA-S116-01        60186 1.1: Quiz      Qz                       86.3
##  7 AnPhA-S116-01        60186 1.2: Quiz      Qz                       86.3
##  8 AnPhA-S116-01        60186 1.3: Create a… Hw                       86.3
##  9 AnPhA-S116-01        60186 1.3: Create a… Hw                       86.3
## 10 AnPhA-S116-01        60186 1.4: Negative… Hw                       86.3
## # … with 29,701 more rows, and 3 more variables: Points_Possible <dbl>,
## #   Points_Earned <dbl>, Gender <chr>
```

```r
course_minutes
```

```
## # A tibble: 598 x 3
##    Bb_UserPK CourseSectionOrigID TimeSpent
##        <dbl> <chr>                   <dbl>
##  1     44638 OcnA-S116-01            1383.
##  2     54346 OcnA-S116-01            1191.
##  3     57981 OcnA-S116-01            3343.
##  4     66740 OcnA-S116-01             965.
##  5     67920 OcnA-S116-01            4095.
##  6     85355 OcnA-S116-01             595.
##  7     85644 OcnA-S116-01            1632.
##  8     86349 OcnA-S116-01            1601.
##  9     86460 OcnA-S116-01            1891.
## 10     87970 OcnA-S116-01            3123.
## # … with 588 more rows
```
…
```r
pre_survey <-
  pre_survey %>%
  rename(student_id = opdata_username,
         course_id = opdata_CourseID)

pre_survey
```

```
## # A tibble: 1,102 x 12
##    student_id course_id    q1    q2    q3    q4    q5    q6    q7    q8    q9
##    <chr>      <chr>     <dbl> <dbl> <dbl> <dbl> <dbl> <dbl> <dbl> <dbl> <dbl>
##  1 _80624_1   FrScA-S1…     4     4     4     5     5     4     5     5     5
##  2 _80623_1   BioA-S11…     4     4     3     4     4     4     4     3     4
##  3 _82588_1   OcnA-S11…    NA    NA    NA    NA    NA    NA    NA    NA    NA
##  4 _80623_1   AnPhA-S1…     4     3     3     4     3     3     3     4     2
##  5 _80624_1   AnPhA-S1…    NA    NA    NA    NA    NA    NA    NA    NA    NA
##  6 _80624_1   AnPhA-S1…     4     2     2     4     4     4     5     4     4
##  7 _80624_1   AnPhA-T1…    NA    NA    NA    NA    NA    NA    NA    NA    NA
##  8 _80624_1   BioA-S11…     5     3     3     5     5     4     5     5     3
##  9 _80624_1   BioA-T11…    NA    NA    NA    NA    NA    NA    NA    NA    NA
## 10 _80624_1   PhysA-S1…     4     4     3     4     4     4     4     4     3
## # … with 1,092 more rows, and 1 more variable: q10 <dbl>
```
…
Let's save our joined data as a new object called `dat`.


```r
dat <-
  left_join(course_data, pre_survey,
            by = c("student_id", "course_id"))
dat
```

```
## # A tibble: 40,348 x 21
##    course_id subject semester section student_id Gradebook_Item Grade_Category
##    <chr>     <chr>   <chr>    <chr>        <dbl> <chr>          <chr>         
##  1 AnPhA-S1… AnPhA   S116     01           60186 POINTS EARNED… <NA>          
##  2 AnPhA-S1… AnPhA   S116     01           60186 WORK ATTEMPTED <NA>          
##  3 AnPhA-S1… AnPhA   S116     01           60186 0.1: Message … <NA>          
##  4 AnPhA-S1… AnPhA   S116     01           60186 0.2: Intro As… Hw            
##  5 AnPhA-S1… AnPhA   S116     01           60186 0.3: Intro As… Hw            
##  6 AnPhA-S1… AnPhA   S116     01           60186 1.1: Quiz      Qz            
##  7 AnPhA-S1… AnPhA   S116     01           60186 1.2: Quiz      Qz            
##  8 AnPhA-S1… AnPhA   S116     01           60186 1.3: Create a… Hw            
##  9 AnPhA-S1… AnPhA   S116     01           60186 1.3: Create a… Hw            
## 10 AnPhA-S1… AnPhA   S116     01           60186 1.4: Negative… Hw            
## # … with 40,338 more rows, and 14 more variables: FinalGradeCEMS <dbl>,
## #   Points_Possible <dbl>, Points_Earned <dbl>, Gender <chr>, q1 <dbl>,
## #   q2 <dbl>, q3 <dbl>, q4 <dbl>, q5 <dbl>, q6 <dbl>, q7 <dbl>, q8 <dbl>,
## #   q9 <dbl>, q10 <dbl>
```
…
For example, the following returns only the rows that are present in both
`course_data` and `pre_survey`:


```r
dat_semi <- 
  semi_join(course_data,
            pre_survey,
            by = c("student_id", "course_id"))

dat_semi
```

```
## # A tibble: 28,655 x 11
##    course_id subject semester section student_id Gradebook_Item Grade_Category
##    <chr>     <chr>   <chr>    <chr>        <dbl> <chr>          <chr>         
##  1 AnPhA-S1… AnPhA   S116     01           60186 POINTS EARNED… <NA>          
##  2 AnPhA-S1… AnPhA   S116     01           60186 WORK ATTEMPTED <NA>          
##  3 AnPhA-S1… AnPhA   S116     01           60186 0.1: Message … <NA>          
##  4 AnPhA-S1… AnPhA   S116     01           60186 0.2: Intro As… Hw            
##  5 AnPhA-S1… AnPhA   S116     01           60186 0.3: Intro As… Hw            
##  6 AnPhA-S1… AnPhA   S116     01           60186 1.1: Quiz      Qz            
##  7 AnPhA-S1… AnPhA   S116     01           60186 1.2: Quiz      Qz            
##  8 AnPhA-S1… AnPhA   S116     01           60186 1.3: Create a… Hw            
##  9 AnPhA-S1… AnPhA   S116     01           60186 1.3: Create a… Hw            
## 10 AnPhA-S1… AnPhA   S116     01           60186 1.4: Negative… Hw            
## # … with 28,645 more rows, and 4 more variables: FinalGradeCEMS <dbl>,
## #   Points_Possible <dbl>, Points_Earned <dbl>, Gender <chr>
```
…
`anti_join()`: *removes* all of the rows in the "left" data frame that can be
joined with those in the "right" data frame.


```r
dat_anti <-
  anti_join(course_data,
            pre_survey,
            by = c("student_id", "course_id"))

dat_anti
```

```
## # A tibble: 1,056 x 11
##    course_id subject semester section student_id Gradebook_Item Grade_Category
##    <chr>     <chr>   <chr>    <chr>        <dbl> <chr>          <chr>         
##  1 AnPhA-S1… AnPhA   S116     01           85865 POINTS EARNED… <NA>          
##  2 AnPhA-S1… AnPhA   S116     01           85865 WORK ATTEMPTED <NA>          
##  3 AnPhA-S1… AnPhA   S116     01           85865 0.1: Message … <NA>          
##  4 AnPhA-S1… AnPhA   S116     01           85865 0.2: Intro As… Hw            
##  5 AnPhA-S1… AnPhA   S116     01           85865 0.3: Intro As… Hw            
##  6 AnPhA-S1… AnPhA   S116     01           85865 1.1: Quiz      Qz            
##  7 AnPhA-S1… AnPhA   S116     01           85865 1.2: Quiz      Qz            
##  8 AnPhA-S1… AnPhA   S116     01           85865 1.3: Create a… Hw            
##  9 AnPhA-S1… AnPhA   S116     01           85865 1.3: Create a… Hw            
## 10 AnPhA-S1… AnPhA   S116     01           85865 1.4: Negative… Hw            
## # … with 1,046 more rows, and 4 more variables: FinalGradeCEMS <dbl>,
## #   Points_Possible <dbl>, Points_Earned <dbl>, Gender <chr>
```
…
```r
dat_right <-
  right_join(course_data,
             pre_survey,
             by = c("student_id", "course_id"))

dat_right
```

```
## # A tibble: 39,593 x 21
##    course_id subject semester section student_id Gradebook_Item Grade_Category
##    <chr>     <chr>   <chr>    <chr>        <dbl> <chr>          <chr>         
##  1 FrScA-S1… <NA>    <NA>     <NA>         80624 <NA>           <NA>          
##  2 BioA-S11… <NA>    <NA>     <NA>         80623 <NA>           <NA>          
##  3 OcnA-S11… <NA>    <NA>     <NA>         82588 <NA>           <NA>          
##  4 AnPhA-S1… <NA>    <NA>     <NA>         80623 <NA>           <NA>          
##  5 AnPhA-S1… <NA>    <NA>     <NA>         80624 <NA>           <NA>          
##  6 AnPhA-S1… <NA>    <NA>     <NA>         80624 <NA>           <NA>          
##  7 AnPhA-T1… <NA>    <NA>     <NA>         80624 <NA>           <NA>          
##  8 BioA-S11… <NA>    <NA>     <NA>         80624 <NA>           <NA>          
##  9 BioA-T11… <NA>    <NA>     <NA>         80624 <NA>           <NA>          
## 10 PhysA-S1… <NA>    <NA>     <NA>         80624 <NA>           <NA>          
## # … with 39,583 more rows, and 14 more variables: FinalGradeCEMS <dbl>,
## #   Points_Possible <dbl>, Points_Earned <dbl>, Gender <chr>, q1 <dbl>,
## #   q2 <dbl>, q3 <dbl>, q4 <dbl>, q5 <dbl>, q6 <dbl>, q7 <dbl>, q8 <dbl>,
## #   q9 <dbl>, q10 <dbl>
```
…
```r
dat_right <-
  semi_join(pre_survey,
            course_data,
            by = c("student_id", "course_id"))

dat_right
```

```
## # A tibble: 801 x 12
##    student_id course_id    q1    q2    q3    q4    q5    q6    q7    q8    q9
##         <dbl> <chr>     <dbl> <dbl> <dbl> <dbl> <dbl> <dbl> <dbl> <dbl> <dbl>
##  1      85791 FrScA-S1…     3     3     3     3     4     3     3     3     2
##  2      87010 FrScA-S1…     5     3     3     5     4     4     3     5     2
##  3      87027 FrScA-S1…     5     5     4     4     4     5     4     5     4
##  4      85649 FrScA-S1…    NA    NA    NA    NA    NA    NA    NA    NA    NA
##  5      86216 BioA-S11…     5     3     4     4     5     4     3     5     4
##  6      68476 OcnA-S11…     4     4     2     2     3     4     4     4     4
##  7      68476 OcnA-S11…     4     4     4     4     4     4     4     4     4
##  8      87866 FrScA-T1…     5     4     3     5     4     4     3     3     3
##  9      64930 FrScA-T1…     4     3     3     4     4     4     3     4     4
## 10      86280 FrScA-S1…     4     3     2     4     4     4     4     4     3
## # … with 791 more rows, and 1 more variable: q10 <dbl>
```
…
Note that they're now combined, even though the course data had many more rows.
The pre-survey data has been joined for each student-course combination. We
have a pretty large data frame! Let's take a quick look.


```r
dat
```

```
## # A tibble: 40,348 x 22
##    course_id subject semester section student_id Gradebook_Item Grade_Category
##    <chr>     <chr>   <chr>    <chr>        <dbl> <chr>          <chr>         
##  1 AnPhA-S1… AnPhA   S116     01           60186 POINTS EARNED… <NA>          
##  2 AnPhA-S1… AnPhA   S116     01           60186 WORK ATTEMPTED <NA>          
##  3 AnPhA-S1… AnPhA   S116     01           60186 0.1: Message … <NA>          
##  4 AnPhA-S1… AnPhA   S116     01           60186 0.2: Intro As… Hw            
##  5 AnPhA-S1… AnPhA   S116     01           60186 0.3: Intro As… Hw            
##  6 AnPhA-S1… AnPhA   S116     01           60186 1.1: Quiz      Qz            
##  7 AnPhA-S1… AnPhA   S116     01           60186 1.2: Quiz      Qz            
##  8 AnPhA-S1… AnPhA   S116     01           60186 1.3: Create a… Hw            
##  9 AnPhA-S1… AnPhA   S116     01           60186 1.3: Create a… Hw            
## 10 AnPhA-S1… AnPhA   S116     01           60186 1.4: Negative… Hw            
## # … with 40,338 more rows, and 15 more variables: FinalGradeCEMS <dbl>,
## #   Points_Possible <dbl>, Points_Earned <dbl>, Gender <chr>, q1 <dbl>,
## #   q2 <dbl>, q3 <dbl>, q4 <dbl>, q5 <dbl>, q6 <dbl>, q7 <dbl>, q8 <dbl>,
## #   q9 <dbl>, q10 <dbl>, TimeSpent <dbl>
```
…
Were we to run `distinct(dat, Gradebook_Item)`, what do you think would be
returned? Running the following code returns a one-column data frame that lists the names of
every distinct gradebook item.
 

```r
distinct(dat, Gradebook_Item)
```

```
## # A tibble: 222 x 1
##    Gradebook_Item                                  
##    <chr>                                           
##  1 POINTS EARNED & TOTAL COURSE POINTS             
##  2 WORK ATTEMPTED                                  
##  3 0.1: Message Your Instructor                    
##  4 0.2: Intro Assignment - Discussion Board        
##  5 0.3: Intro Assignment - Submitting Files        
##  6 1.1: Quiz                                       
##  7 1.2: Quiz                                       
##  8 1.3: Create a Living Creature                   
##  9 1.3: Create a Living Creature - Discussion Board
## 10 1.4: Negative Feedback Loop Flowchart           
## # … with 212 more rows
```

You might be wondering whether some gradebook
items have the same names across courses. We can return the unique *combination*
of courses and gradebook items by simply adding another variable to
`distinct()`:


```r
distinct(dat, course_id, Gradebook_Item)
```

```
## # A tibble: 1,269 x 2
##    course_id     Gradebook_Item                                  
##    <chr>         <chr>                                           
##  1 AnPhA-S116-01 POINTS EARNED & TOTAL COURSE POINTS             
##  2 AnPhA-S116-01 WORK ATTEMPTED                                  
##  3 AnPhA-S116-01 0.1: Message Your Instructor                    
##  4 AnPhA-S116-01 0.2: Intro Assignment - Discussion Board        
##  5 AnPhA-S116-01 0.3: Intro Assignment - Submitting Files        
##  6 AnPhA-S116-01 1.1: Quiz                                       
##  7 AnPhA-S116-01 1.2: Quiz                                       
##  8 AnPhA-S116-01 1.3: Create a Living Creature                   
##  9 AnPhA-S116-01 1.3: Create a Living Creature - Discussion Board
## 10 AnPhA-S116-01 1.4: Negative Feedback Loop Flowchart           
## # … with 1,259 more rows
```
…
survey_responses
```

```
## # A tibble: 515 x 4
## # Groups:   student_id [515]
##    student_id   int    pc    uv
##         <dbl> <dbl> <dbl> <dbl>
##  1      43146  5     4.5   4.33
##  2      44638  4.2   3.5   4   
##  3      47448  5     4     3.67
##  4      47979  5     3.5   5   
##  5      48797  3.8   3.5   3.5 
##  6      49147  4.25  3.73  3.71
##  7      51943  4.6   4     4   
##  8      52326  5     3.5   5   
##  9      52446  3     3     3.33
## 10      53248  4     3     3.33
## # … with 505 more rows
```
…
