…
You can use a different file path if you like, just take note of where your downloaded files are so you can use the correct file path when writing your code to import the data. 

### Reading in One Dataset 

We'll be learning how to read in more than one dataset using the `map()` function. Let's try it first with one dataset, then we'll scale our solution up to multiple datasets. When you are analyzing multiple datasets that all have the same structure, you can read in each dataset using one code chunk. This code chunk will store each dataset as an element of a list. 

Before doing that, you should explore one of the datasets to see what you can learn about its structure. Clues from this exploration inform how you read in all the datasets at once later on. For example, we can see that the first dataset has some lines at the top that contain no data: 


```
#> # A tibble: 16,234 x 31
#>    `Extraction Dat… `6/12/2013` X3    X4    X5    X6    X7    X8    X9    X10  
#>    <chr>            <chr>       <chr> <chr> <chr> <chr> <chr> <chr> <chr> <chr>
#>  1 Updated:         2/12/2014   <NA>  <NA>  <NA>  <NA>  <NA>  <NA>  <NA>  <NA> 
#>  2 Revised:         <NA>        <NA>  <NA>  <NA>  <NA>  <NA>  <NA>  <NA>  <NA> 
#>  3 <NA>             <NA>        <NA>  <NA>  <NA>  <NA>  <NA>  <NA>  <NA>  <NA> 
#>  4 Year             State Name  SEA … SEA … Amer… Asia… Blac… Hisp… Nati… Two …
#>  5 2012             ALABAMA     Corr… All … -     -     -     -     -     -    
#>  6 2012             ALABAMA     Home  All … 1     1     57    12    0     2    
#>  7 2012             ALABAMA     Home… All … -     -     -     -     -     -    
#>  8 2012             ALABAMA     Insi… All … -     -     -     -     -     -    
#>  9 2012             ALABAMA     Insi… All … -     -     -     -     -     -    
#> 10 2012             ALABAMA     Insi… All … -     -     -     -     -     -    
#> # … with 16,224 more rows, and 21 more variables: X11 <chr>, X12 <chr>,
#> #   X13 <chr>, X14 <chr>, X15 <chr>, X16 <chr>, X17 <chr>, X18 <chr>,
#> #   X19 <chr>, X20 <chr>, X21 <chr>, X22 <chr>, X23 <chr>, X24 <chr>,
#> #   X25 <chr>, X26 <chr>, X27 <chr>, X28 <chr>, X29 <chr>, X30 <chr>, X31 <chr>
```
…
Try using `skip = 4` in your call to `read_csv()`:


```r
read_csv(here::here(
  "data",
  "longitudinal_data",
  "bchildcountandedenvironments2012.csv"
),
skip = 4)
```

```
#> # A tibble: 16,230 x 31
#>     Year `State Name` `SEA Education … `SEA Disability… `American India…
#>    <dbl> <chr>        <chr>            <chr>            <chr>           
#>  1  2012 ALABAMA      Correctional Fa… All Disabilities -               
#>  2  2012 ALABAMA      Home             All Disabilities 1               
#>  3  2012 ALABAMA      Homebound/Hospi… All Disabilities -               
#>  4  2012 ALABAMA      Inside regular … All Disabilities -               
#>  5  2012 ALABAMA      Inside regular … All Disabilities -               
#>  6  2012 ALABAMA      Inside regular … All Disabilities -               
#>  7  2012 ALABAMA      Other Location … All Disabilities 7               
#>  8  2012 ALABAMA      Other Location … All Disabilities 1               
#>  9  2012 ALABAMA      Parentally Plac… All Disabilities -               
#> 10  2012 ALABAMA      Residential Fac… All Disabilities 0               
#> # … with 16,220 more rows, and 26 more variables: `Asian Age 3-5` <chr>, `Black
#> #   or African American Age 3-5` <chr>, `Hispanic/Latino Age 3-5` <chr>,
#> #   `Native Hawaiian or Other Pacific Islander Age 3-5` <chr>, `Two or More
#> #   Races Age 3-5` <chr>, `White Age 3-5` <chr>, `Female Age 3 to 5` <chr>,
#> #   `Male Age 3 to 5` <chr>, `LEP Yes Age 3 to 5` <chr>, `LEP No Age 3 to
#> #   5` <chr>, `Age 3 to 5` <chr>, `Age 6-11` <chr>, `Age 12-17` <chr>, `Age
#> #   18-21` <chr>, `Ages 6-21` <chr>, `LEP Yes Age 6 to 21` <chr>, `LEP No Age 6
#> #   to 21` <chr>, `Female Age 6 to 21` <chr>, `Male Age 6 to 21` <chr>,
#> #   `American Indian or Alaska Native Age 6 to21` <chr>, `Asian Age 6
…
```r
filenames[[1]]
filenames[[5]]
```

Once we know the 2016 dataset is the fifth element of our list, we can pluck it out by using double brackets: 


```r
all_files[[5]]
```

```
#> # A tibble: 16,230 x 50
#>    `2016` Alabama `Correctional F… `All Disabiliti… `-`   `-_1` `-_2` `-_3`
#>     <dbl> <chr>   <chr>            <chr>            <chr> <chr> <chr> <chr>
#>  1   2016 Alabama Home             All Disabilities 43    30    35    0    
#>  2   2016 Alabama Homebound/Hospi… All Disabilities -     -     -     -    
#>  3   2016 Alabama Inside regular … All Disabilities -     -     -     -    
#>  4   2016 Alabama Inside regular … All Disabilities -     -     -     -    
#>  5   2016 Alabama Inside regular … All Disabilities -     -     -     -    
#>  6   2016 Alabama Parentally Plac… All Disabilities -     -     -     -    
#>  7   2016 Alabama Residential Fac… All Disabilities 5     3     4     0    
#>  8   2016 Alabama Residential Fac… All Disabilities -     -     -     -    
#>  9   2016 Alabama Separate Class   All Disabilities 58    58    98    0    
#> 10   2016 Alabama Separate School… All Disabilities 11    20    19    0    
#> # … with 16,220 more rows, and 42 more variables: `-_4` <chr>, `-_5` <chr>,
#> #   `-_6` <chr>, `-_7` <chr>, `-_8` <chr>, `-_9` <chr>, `-_10` <chr>,
#> #   `-_11` <chr>, `-_12` <chr>, `-_13` <chr>, `-_14` <chr>, `0` <chr>,
#> #   `0_1` <chr>, `0_2` <chr>, `0_3` <chr>, `0_4` <chr>, `0_5` <chr>,
#> #   `0_6` <chr>, `0_7` <chr>, `0_8` <chr>, `1` <chr>, `2` <chr>, `4` <chr>,
#> #   `14` <chr>, `22` <chr>, `30` <chr>, `4_1` <chr>, `0_9` <chr>, `7` <chr>,
#> #   `70` <chr>, `77` <chr>, `0_10` <chr>, `77_1` <chr>, `1_1` <chr>,
#> #   `76` <chr>, `0_11` <chr>, `0_12` <chr>, `68` <chr>, `0_13` <chr>,
#> #   `0_14` <chr>, `0_15` <chr>, `9` <chr>
```
…
Combining `select()` and `contains()` is a convenient way to pick these variables without writing a lot of code. Knowing that we want variables that contain the acronym "SEA" and variables that contain "male" in their names, we can pass those characters to `contains()`:


```r
all_files[[1]] %>%
  select(
    Year,
    contains("State", ignore.case = FALSE),
    contains("SEA", ignore.case = FALSE),
    contains("male")
  ) 
```

```
#> # A tibble: 16,230 x 8
#>     Year `State Name` `SEA Education … `SEA Disability… `Female Age 3 t…
#>    <dbl> <chr>        <chr>            <chr>            <chr>           
#>  1  2012 ALABAMA      Correctional Fa… All Disabilities -               
#>  2  2012 ALABAMA      Home             All Disabilities 63              
#>  3  2012 ALABAMA      Homebound/Hospi… All Disabilities -               
#>  4  2012 ALABAMA      Inside regular … All Disabilities -               
#>  5  2012 ALABAMA      Inside regular … All Disabilities -               
#>  6  2012 ALABAMA      Inside regular … All Disabilities -               
#>  7  2012 ALABAMA      Other Location … All Disabilities 573             
#>  8  2012 ALABAMA      Other Location … All Disabilities 81              
#>  9  2012 ALABAMA      Parentally Plac… All Disabilities -               
#> 10  2012 ALABAMA      Residential Fac… All Disabilities 6               
#> # … with 16,220 more rows, and 3 more variables: `Male Age 3 to 5` <chr>,
#> #   `Female Age 6 to 21` <chr>, `Male Age 6 to 21` <chr>
```
…
### Convert Data Types

The values in the `total` column represent the number of students from a specific year, state, gender, and age group. We know from the `chr` under their variable names that R is treating these values like characters instead of numbers. While R does a decent job of treating numbers like numbers when needed, it's much safer to prepare the dataset by changing these character columns to numeric columns. We'll use `mutate()` to change the count columns. 


```r
child_counts <-
  child_counts %>%
  mutate(total = as.numeric(total))

child_counts
```

```
#> # A tibble: 2,928 x 6
#>     year state   age             disability       gender total
#>    <dbl> <chr>   <chr>           <chr>            <chr>  <dbl>
#>  1  2012 alabama Total, Age 3-5  All Disabilities f       2228
#>  2  2012 alabama Total, Age 3-5  All Disabilities m       5116
#>  3  2012 alabama Total, Age 3-5  All Disabilities f         NA
#>  4  2012 alabama Total, Age 3-5  All Disabilities m         NA
#>  5  2012 alabama Total, Age 6-21 All Disabilities f         NA
#>  6  2012 alabama Total, Age 6-21 All Disabilities m         NA
#>  7  2012 alabama Total, Age 6-21 All Disabilities f      23649
#>  8  2012 alabama Total, Age 6-21 All Disabilities m      48712
#>  9  2012 alaska  Total, Age 3-5  All Disabilities f        676
#> 10  2012 alaska  Total, Age 3-5  All Disabilities m       1440
#> # … with 2,918 more rows
```
…
### Explore and Address NAs

You'll notice that some rows in the `total` column contain an `NA`. When we used `pivot_longer()` to create a `gender` column, R created unique rows for every year, state, age, disability, and gender combination. Since the original dataset had both gender and age range stored in a column like `Female Age 3 to 5`, R made rows where the `total` value is NA . For example, there is no student count for the `age` value "Total, Age 3-5" that also has the `gender` value for female students who were age 6-21. You can see that more clearly by sorting the dataset by year, state, and gender. 

In our foundational skills chapter, we introduced a {dplyr} function called `arrange()` to sort the rows of a dataset by the values in a column. Let's use `arrange()` here to sort the dataset by the `year`, `state` and `gender` columns. When you pass `arrange()` a variable, it will sort by the order of the values in that variable. If you pass it multiple variables, `arrange()` will sort by the first variable, then by the second, and so on. Let's see what it does on `child_counts` when we pass it the `year`, `state`, and `gender` variables:


```r
child_counts %>%
  arrange(year, state, gender)
```

```
#> # A tibble: 2,928 x 6
#>    year       state   age             disability       gender total
#>    <date>     <chr>   <chr>           <chr>            <chr>  <dbl>
#>  1 2012-01-01 alabama Total, Age 3-5  All Disabilities f       2228
#>  2 2012-01-01 alabama Total, Age 3-5  All Disabilities f         NA
#>  3 2012-01-01 alabama Total, Age 6-21 All Disabilities f         NA
#>  4 2012-01-01 alabama Total, Age 6-21 All Disabilities f      23649
#>  5 2012-01-01 alabama Total, Age 3-5  All Disabilities m       5116
#>  6 2012-01-01 alabama Total, Age 3-5  All Disabilities m         NA
#>  7 2012-01-01 alabama Total, Age 6-21 All Disabilities m         NA
#>  8 2012-01-01 alabama Total, Age 6-21 All Disabilities m      48712
#>  9 2012-01-01 alaska  Total, Age 3-5  All Disabilities f        676
#> 10 2012-01-01 alaska  Total, Age 3-5  All Disabilities f         NA
#> # … with 2,918 more rows
```
…
We can verify we have the categories we want by sorting again: 


```r
child_counts %>%
  arrange(year, state, gender)
```

```
#> # A tibble: 1,390 x 6
#>    year       state          age             disability       gender total
#>    <date>     <chr>          <chr>           <chr>            <chr>  <dbl>
#>  1 2012-01-01 alabama        Total, Age 3-5  All Disabilities f       2228
#>  2 2012-01-01 alabama        Total, Age 6-21 All Disabilities f      23649
#>  3 2012-01-01 alabama        Total, Age 3-5  All Disabilities m       5116
#>  4 2012-01-01 alabama        Total, Age 6-21 All Disabilities m      48712
#>  5 2012-01-01 alaska         Total, Age 3-5  All Disabilities f        676
#>  6 2012-01-01 alaska         Total, Age 6-21 All Disabilities f       5307
#>  7 2012-01-01 alaska         Total, Age 3-5  All Disabilities m       1440
#>  8 2012-01-01 alaska         Total, Age 6-21 All Disabilities m      10536
#>  9 2012-01-01 american samoa Total, Age 3-5  All Disabilities f         45
#> 10 2012-01-01 american samoa Total, Age 6-21 All Disabilities f        208
#> # … with 1,380 more rows
```
…
