…
Let's use `unnest_tokens` to take our dataset of tweets and transform it into a dataset of words. 


```r
tokens <- 
  tweets %>%
  unnest_tokens(output = word, input = text)

tokens 
```

```
## # A tibble: 131,233 x 2
##    status_id           word       
##    <chr>               <chr>      
##  1 1163154266065735680 first      
##  2 1163154266065735680 tidytuesday
##  3 1163154266065735680 submission 
##  4 1163154266065735680 roman      
##  5 1163154266065735680 emperors   
##  6 1163154266065735680 and        
##  7 1163154266065735680 their      
##  8 1163154266065735680 rise       
##  9 1163154266065735680 to         
## 10 1163154266065735680 power      
## # … with 131,223 more rows
```
…
One final note before we start counting words: Remember when we first tokenized our dataset and we passed `unnest_tokens` the argument `output = word`? We conveniently chose `word` as our column name because it matches the column name `word` in the `stop_words` dataset. This makes our call to `anti_join` simpler because `anti_join` knows to look for the column named `word` in each dataset. 

## Analysis: Counting Words 

Now it's time to start exploring our newly cleaned dataset of tweets. Computing the frequency of each word and seeing which words showed up the most often is a good start. We can pipe `tokens` to the `count` function to do this: 


```r
tokens %>% 
    count(word, sort = TRUE) 
```

```
## # A tibble: 15,335 x 2
##    word            n
##    <chr>       <int>
##  1 t.co         5432
##  2 https        5406
##  3 tidytuesday  4316
##  4 rstats       1748
##  5 data         1105
##  6 code          988
##  7 week          868
##  8 r4ds          675
##  9 dataviz       607
## 10 time          494
## # … with 15,325 more rows
```
…
We may want to explore further by showing the frequency of words as a percent of the whole dataset. Calculating percentages like this is useful in a lot of education scenarios because it helps us make comparisons across different sized groups. For example, you may want to calculate what percentage of students in each classroom receive special education services. 

In our tweets dataset, we'll be calculating the count of words as a percentage of all tweets. We can do that by using `mutate` to add a column called `percent`. `percent` will divide `n` by `sum(n)`, which is the total number of words. Finally, will multiply the result by 100.


```r
tokens %>%
  count(word, sort = TRUE) %>%
  # n as a percent of total words
  mutate(percent = n / sum(n) * 100)
```

```
## # A tibble: 15,335 x 3
##    word            n percent
##    <chr>       <int>   <dbl>
##  1 t.co         5432   7.39 
##  2 https        5406   7.36 
##  3 tidytuesday  4316   5.87 
##  4 rstats       1748   2.38 
##  5 data         1105   1.50 
##  6 code          988   1.34 
##  7 week          868   1.18 
##  8 r4ds          675   0.919
##  9 dataviz       607   0.826
## 10 time          494   0.672
## # … with 15,325 more rows
```
…
```r
install.packages("tidytext")
```

Earlier we used `anti_join` to remove stop words in our dataset. We're going to do something similar here to reduce our `tokens` dataset to only words that have a positive association. We'll use a dataset called the NRC Word-Emotion Association Lexicon to help us identify words with a positive association. This dataset was published in a work called Crowdsourcing a Word-Emotion Association Lexicon [@mohammad2013]

To explore this dataset more, we'll use a `tidytext` function called `get_sentiments` to view some words and their associated sentiment. If this is your first time using the NRC Word-Emotion Association Lexicon in the `tidytext` package, you'll be prompted to download the NRC lexicon. Respond "yes" to the prompt and the NRC lexicon will download. Note that you'll only have to do this the first time you use the NRC lexicon. 


```r
get_sentiments("nrc")
```

```
## # A tibble: 13,901 x 2
##    word        sentiment
##    <chr>       <chr>    
##  1 abacus      trust    
##  2 abandon     fear     
##  3 abandon     negative 
##  4 abandon     sadness  
##  5 abandoned   anger    
##  6 abandoned   fear     
##  7 abandoned   negative 
##  8 abandoned   sadness  
##  9 abandonment anger    
## 10 abandonment fear     
## # … with 13,891 more rows
```
…
# Match to tokens
pos_tokens_count <-
  tokens %>%
  inner_join(nrc_pos, by = "word") %>%
  # Total appearance of positive words
  count(word, sort = TRUE) 

pos_tokens_count
```

```
## # A tibble: 644 x 2
##    word          n
##    <chr>     <int>
##  1 fun         173
##  2 top         162
##  3 learn       131
##  4 found       128
##  5 love        113
##  6 community   110
##  7 learning     97
##  8 happy        95
##  9 share        90
## 10 inspired     85
## # … with 634 more rows
```
…
We'll explore the combinations of "dataviz" and any positive words in our `tweets` dataset using these three ingredients: our `tweets` dataset, a vector of `status_id`s for tweets that have "dataviz" in them, and a vector of `status_id`s for tweets that have positive words in them. Now that we have our strategy, let's write some code and see how it works. 

First, we'll make a vector of `status_id`s for tweets that have "dataviz" in them. This will be used later to identify tweets that contain "dataviz" in the text. We'll use `filter` on our `tokens` dataset to keep only the rows that have "dataviz" in the `word` column. Let's name that new dataset `dv_tokens`. 


```r
dv_tokens <-
  tokens %>%
  filter(word == "dataviz")

dv_tokens
```

```
## # A tibble: 607 x 2
##    status_id           word   
##    <chr>               <chr>  
##  1 1116518351147360257 dataviz
##  2 1098025772554612738 dataviz
##  3 1161454327296339968 dataviz
##  4 1110711892086001665 dataviz
##  5 1151926405162291200 dataviz
##  6 1095854400004853765 dataviz
##  7 1157111441419395074 dataviz
##  8 1154958378764046336 dataviz
##  9 1105642831413239808 dataviz
## 10 1108196618464047105 dataviz
## # … with 597 more rows
```
…
Now let's do this again, but this time we'll we'll make a vector of `status_id`s for tweets that have positive words in them. This will be used later to identify tweets that contain a positive word in the text. We'll use `filter` on our `tokens` dataset to keep only the rows that have any of the positive words in the in the `word` column. If you've been running all the code up to this point in the walkthrough, you'll notice that you already have a dataset of positive words called `nrc_pos`, which can be turned into a vector of positive words by typing `nrc_pos$word`. We can use the `%in%` operator in our call to `filter` to find only words that are in this vector of positive words. Let's name this new dataset `pos_tokens`.


```r
pos_tokens <- 
  tokens %>%
  filter(word %in% nrc_pos$word)

pos_tokens
```

```
## # A tibble: 4,925 x 2
##    status_id           word      
##    <chr>               <chr>     
##  1 1163154266065735680 throne    
##  2 1001412196247666688 honey     
##  3 1001412196247666688 production
##  4 1001412196247666688 increase  
##  5 1001412196247666688 production
##  6 1161638973808287746 found     
##  7 991073965899644928  community 
##  8 991073965899644928  community 
##  9 991073965899644928  trend     
## 10 991073965899644928  white     
## # … with 4,915 more rows
```
…
