…
```r
tidytuesday_tweets <- 
  search_tweets("#tidytuesday")
```

A key point--and limitation--for how Twitter allows access to their data for the seven most recent days. There are a number of ways to access older data, which we discuss at the end of this chapter, though we focus on one way here: having access to the URLs to (or the status IDs for) tweets. We used this technique, which we describe in this chapter's *Appendix A*, along with other strategies for collecting historical data from Twitter. The data that we processed is available in the dataedu R package as the `tt-tweets` dataset.


```r
tt_tweets
```

```
## # A tibble: 4,418 x 90
##    user_id status_id created_at          screen_name text  source
##    <chr>   <chr>     <dttm>              <chr>       <chr> <chr> 
##  1 115921… 11631542… 2019-08-18 18:22:42 MKumarYYC   "Fir… Twitt…
##  2 107332… 11632475… 2019-08-19 00:33:11 cizzart     "El … Twitt…
##  3 107332… 11450435… 2019-06-29 18:57:17 cizzart     "Pro… Twitt…
##  4 107332… 11168648… 2019-04-13 00:45:15 cizzart     "#Ar… Twitt…
##  5 107332… 11228824… 2019-04-29 15:17:02 cizzart     "Pes… Twitt…
##  6 107332… 11176387… 2019-04-15 04:00:17 cizzart     "Dat… Twitt…
##  7 107332… 11245531… 2019-05-04 05:55:32 cizzart     "El … Twitt…
##  8 107332… 11407021… 2019-06-17 19:25:50 cizzart     "#da… Twitt…
##  9 107332… 11325299… 2019-05-26 06:12:46 cizzart     "El … Twitt…
## 10 107332… 11233585… 2019-04-30 22:48:43 cizzart     "Vis… Twitt…
## # … with 4,408 more rows, and 84 more variables: display_text_width <dbl>,
## #   reply_to_status_id <chr>, reply_to_user_id <chr>,
## #   reply_to_screen_name <chr>, is_quote <lgl>, is_retweet <lgl>,
## #   favorite_count <int>, retweet_count <int>, quote_count <int>,
## #   reply_count <int>, hashtags <list>, symbols <list>, urls_url <list>,
## #   urls_t.co <list>, urls_expanded_url <list>, media_url <list>,
## #   media_t.co <list>, media_expanded_url <list>, media_type <list>,
## #   ext_media_url <list>, ext_media_t.co <list>, ext_media_expanded_url <list>,
## #   ext_media_type <chr>, mentions_user_id <list>, mentions_screen_name <list>,
…
## Putting the edgelist together

An edgelist is a common social network analysis data structure that has columns for the "sender" and "receiver" of interactions, or relations. For example, someone "sends" the mention to someone who is mentioned, who can be considered to "receive" it. This will require one last processing step. Let's look at our data as it is now.


```r
mentions
```

```
## # A tibble: 2,447 x 2
##    sender  all_mentions    
##    <chr>   <chr>           
##  1 cizzart @eldestapeweb   
##  2 cizzart @INDECArgentina 
##  3 cizzart @ENACOMArgentina
##  4 cizzart @tribunalelecmns
##  5 cizzart @CamaraElectoral
##  6 cizzart @INDECArgentina 
##  7 cizzart @tribunalelecmns
##  8 cizzart @CamaraElectoral
##  9 cizzart @AgroMnes       
## 10 cizzart @AgroindustriaAR
## # … with 2,437 more rows
```
…
