…
# Counting words 

Though a basic step, assessing the most frequent terms can be powerful. The `topfeatures()` function can be helpful for this; simply pass `my_dfm` as the first argument to it to see the results.


```r
tokens %>% 
    count(word, sort = TRUE)
```

```
## # A tibble: 892 x 2
##    word               n
##    <chr>          <int>
##  1 https            256
##  2 t.co             256
##  3 aect19           234
##  4 rt               108
##  5 aect19inspired    85
##  6 aect              84
##  7 week              32
##  8 vegas             31
##  9 conference        29
## 10 session           29
## # â€¦ with 882 more rows
```
…
```r
install.packages("textdata")
```

NRC is a dataset was published in a work called Crowdsourcing a Word-Emotion Association Lexicon (Saif M. Mohammad and Peter Turney, 2013). 


```r
get_sentiments("nrc")
```

```
## # A tibble: 13,901 x 2
##    word        sentiment
##    <chr>       <chr>    
##  1 abacus      trust    
##  2 abandon     fear     
##  3 abandon     negative 
##  4 abandon     sadness  
##  5 abandoned   anger    
##  6 abandoned   fear     
##  7 abandoned   negative 
##  8 abandoned   sadness  
##  9 abandonment anger    
## 10 abandonment fear     
## # â€¦ with 13,891 more rows
```
…
