…
### Putting the Edgelist Together

Recall that an edgelist is a data structure that has columns for the "sender" and "receiver" of interactions. Someone "sends" the mention to someone who is mentioned, who can be considered to "receive" it. To make the edgelist, we'll need to clean it up a little by removing the "@" symbol. Let's look at our data as it is now.


```r
mentions
```

```
## # A tibble: 2,447 x 2
##    sender  all_mentions    
##    <chr>   <chr>           
##  1 cizzart @eldestapeweb   
##  2 cizzart @INDECArgentina 
##  3 cizzart @ENACOMArgentina
##  4 cizzart @tribunalelecmns
##  5 cizzart @CamaraElectoral
##  6 cizzart @INDECArgentina 
##  7 cizzart @tribunalelecmns
##  8 cizzart @CamaraElectoral
##  9 cizzart @AgroMnes       
## 10 cizzart @AgroindustriaAR
## # … with 2,437 more rows
```
…
Large networks like this one can be hard to work with because of their size. We can get around that problem by only include some individuals. Let's explore how many interactions each individual in the network sent by using `count()`: 


```r
interactions_sent <- edgelist %>% 
  # this counts how many times each sender appears in the data frame, effectively counting how many interactions each individual sent 
  count(sender) %>% 
  # arranges the data frame in descending order of the number of interactions sent
  arrange(desc(n))

interactions_sent
```

```
## # A tibble: 618 x 2
##    sender            n
##    <chr>         <int>
##  1 thomas_mock     347
##  2 R4DScommunity    78
##  3 WireMonkey       52
##  4 CedScherer       41
##  5 allison_horst    37
##  6 mjhendrickson    34
##  7 kigtembu         27
##  8 WeAreRLadies     25
##  9 PBecciu          23
## 10 sil_aarts        23
## # … with 608 more rows
```
…
