…
```r
dat <- dataedu::sci_mo_processed
```

To wrap up our discussion about factor variables, levels, and dummy codes, let's look at how many classes are represented in the `course_id` variable. These classes will be our factor levels that we'll be using in our model soon. We can use the `count()` function to see how many courses there are: 


```r
dat %>% 
  count(course_id)
```

```
## # A tibble: 26 x 2
##    course_id         n
##    <chr>         <int>
##  1 AnPhA-S116-01    43
##  2 AnPhA-S116-02    29
##  3 AnPhA-S216-01    43
##  4 AnPhA-S216-02    17
##  5 AnPhA-T116-01    11
##  6 BioA-S116-01     34
##  7 BioA-S216-01      7
##  8 BioA-T116-01      2
##  9 FrScA-S116-01    70
## 10 FrScA-S116-02    12
## # … with 16 more rows
```
…
