9 Walkthrough 3: Using School-Level Aggregate Data to Illuminate Educational Inequities | Data Science in Education Using R
…
Running the code above, particularly the download of the PDFs, takes a lot of
time. We’ve saved copies of the merged and tidy data in the book’s data folder and {dataedu}. To access them, you can run the code below.

# if reading in from book repository
district_tidy_df <-
  read_csv(here("data", "agg_data", "district_tidy_df.csv"))

district_merged_df <-
  read_csv(here("data", "agg_data", "district_merged_df.csv"))

# if using the {dataedu} package
dataedu::district_tidy_df

## # A tibble: 1,924 x 3
##    school_name        category value
##    <chr>              <chr>    <dbl>
##  1 ARMATAGE           na_num       5
##  2 BANCROFT           na_num      49
##  3 BETHUNE            na_num       3
##  4 BRYN MAWR          na_num      11
##  5 BURROUGHS          na_num       6
##  6 CITYVIEW COMMUNITY na_num      12
##  7 DOWLING            na_num      11
##  8 EMERSON SILC       na_num       8
##  9 GREEN              na_num       6
## 10 HALE               na_num       4
## # … with 1,914 more rows

dataedu::district_merged_df

## # A tibble: 74 x 27
##    school_name na_num  na_pct aa_num aa_pct as_num as_pct hi_num hi_pct wh_num
##    <chr>        <dbl>   <dbl>  <dbl>  <dbl>  <dbl>  <dbl>  <dbl>  <dbl>  <dbl>
##  1 ARMATAGE         5 0.00826    119 0.197      33 0.0545     29 0.0479    416
##  2 BANCROFT        49 0.0974     238 0.473      20 0.0398     93 0.185     103
##  3 BETHUNE          3 0.0109     232 0.847       8 0.0292      9 0.0328     22
##  4 BRYN MAWR       11 0.0368     148 0.495      77 0.258      32 0.107      31
##  5 BURROUGHS        6 0.00811     71 0.0959     51 0.0689     41 0.0554    567
##  6 CITYVIEW C…     12 0.0451     206 0.774      13 0.0489      9 0.0338     26
##  7 DOWLING         11 0.0231     187 0.392       9 0.0189     28 0.0587    242
##  8 EMERSON SI…      8 0.0165      60 0.123       6 0.0123    344 0.708      68
##  9 GREEN            6 0.0219      85 0.310       7 0.0255    160 0.584      16
## 10 HALE             4 0.00620     84 0.130      34 0.0527     35 0.0543    486
## # … with 64 more rows, and 17 more variables: wh_pct <dbl>, tot <dbl>,
## #   not_eligible_num <dbl>, reduce_num <dbl>, free_num <dbl>, frpl_num <dbl>,
## #   frpl_pct <dbl>, hi_povnum <dbl>, aa_povnum <dbl>, wh_povnum <dbl>,
## #   as_povnum <dbl>, na_povnum <dbl>, hi_povsch <dbl>, aa_povsch <dbl>,
## #   as_povsch <dbl>, wh_povsch <dbl>, na_povsch <dbl>
…
