Walkthrough 6: Exploring Relationships Using Social Network Analysis With Social Media Data | Data Science in Education Using R
…
rstats_tweets <- 
  search_tweets("#rstats")

As described in the previous chapter, the search term can be easily changed to other hashtags - or other terms. To search for #tidytuesday tweets, we can simply replace #rstats with #tidytuesday.

tidytuesday_tweets <- 
  search_tweets("#tidytuesday")

View Data

We can see that there are many rows for the data:

tt_tweets

#> # A tibble: 4,418 x 90
#>    user_id status_id created_at          screen_name text  source
#>    <chr>   <chr>     <dttm>              <chr>       <chr> <chr> 
#>  1 115921… 11631542… 2019-08-18 18:22:42 MKumarYYC   "Fir… Twitt…
#>  2 107332… 11632475… 2019-08-19 00:33:11 cizzart     "El … Twitt…
#>  3 107332… 11450435… 2019-06-29 18:57:17 cizzart     "Pro… Twitt…
#>  4 107332… 11168648… 2019-04-13 00:45:15 cizzart     "#Ar… Twitt…
#>  5 107332… 11228824… 2019-04-29 15:17:02 cizzart     "Pes… Twitt…
#>  6 107332… 11176387… 2019-04-15 04:00:17 cizzart     "Dat… Twitt…
#>  7 107332… 11245531… 2019-05-04 05:55:32 cizzart     "El … Twitt…
#>  8 107332… 11407021… 2019-06-17 19:25:50 cizzart     "#da… Twitt…
#>  9 107332… 11325299… 2019-05-26 06:12:46 cizzart     "El … Twitt…
#> 10 107332… 11233585… 2019-04-30 22:48:43 cizzart     "Vis… Twitt…
#> # … with 4,408 more rows, and 84 more variables: display_text_width <dbl>,
#> #   reply_to_status_id <chr>, reply_to_user_id <chr>,
#> #   reply_to_screen_name <chr>, is_quote <lgl>, is_retweet <lgl>,
#> #   favorite_count <int>, retweet_count <int>, quote_count <int>,
#> #   reply_count <int>, hashtags <list>, symbols <list>, urls_url <list>,
#> #   urls_t.co <list>, urls_expanded_url <list>, media_url <list>,
#> #   media_t.co <list>, media_expanded_url <list>, media_type <list>,
#> #   ext_media_url <list>, ext_media_t.co <list>, ext_media_expanded_url <list>,
#> #   ext_media_type <chr>, mentions_user_id <list>, mentions_screen_name <list>,
…
Let’s put these into their own data frame, called mentions.

mentions <-
  tt_tweets %>%
  mutate(all_mentions = str_trim(all_mentions)) %>%
  select(sender = screen_name, all_mentions)

Putting the Edgelist Together

An edgelist is a common social network analysis data structure that has columns for the “sender” and “receiver” of interactions, or relations. For example, someone “sends” the mention to someone who is mentioned, who can be considered to “receive” it. This will require one last processing step. Let’s look at our data as it is now.

mentions

#> # A tibble: 2,447 x 2
#>    sender  all_mentions    
#>    <chr>   <chr>           
#>  1 cizzart @eldestapeweb   
#>  2 cizzart @INDECArgentina 
#>  3 cizzart @ENACOMArgentina
#>  4 cizzart @tribunalelecmns
#>  5 cizzart @CamaraElectoral
#>  6 cizzart @INDECArgentina 
#>  7 cizzart @tribunalelecmns
#>  8 cizzart @CamaraElectoral
#>  9 cizzart @AgroMnes       
#> 10 cizzart @AgroindustriaAR
#> # … with 2,437 more rows
…
Now that we have our edgelist, it is straightforward to plot the network. We’ll use the {tidygraph} and {ggraph} packages to visualize the data.

Plotting the Network

Because large networks (like this one) can present challenges, it is common to filter them to only include some individuals. Let’s explore how many interactions each individual in the network sent.

interactions_sent <- edgelist %>% 
  # this counts how many times each sender appears in the data frame, effectively counting how many interactions each individual sent 
  count(sender) %>% 
  # arranges the data frame in descending order of the number of interactions sent
  arrange(desc(n))

interactions_sent

#> # A tibble: 618 x 2
#>    sender            n
#>    <chr>         <int>
#>  1 thomas_mock     347
#>  2 R4DScommunity    78
#>  3 WireMonkey       52
#>  4 CedScherer       41
#>  5 allison_horst    37
#>  6 mjhendrickson    34
#>  7 kigtembu         27
#>  8 WeAreRLadies     25
#>  9 PBecciu          23
#> 10 sil_aarts        23
#> # … with 608 more rows
…
