13 Walkthrough 7: The Role (and Usefulness) of Multilevel Models | Data Science in Education Using R
…
13.4 The Role of Dummy Codes

Before we import our data, let’s spend some time learning about a process called dummy-coding. In this discussion, we’ll see how dummy coding works through using the {dummies} package, though you often do not need to manually dummy code variables like this.

Let’s consider the iris data that comes built into R. To make the dataset work nicely with {tidyverse} functions we’ll be using, we will first change it into a tibble:

iris <- 
  as_tibble(iris,
            .name_repair = "unique")
iris

## # A tibble: 150 x 5
##    Sepal.Length Sepal.Width Petal.Length Petal.Width Species
##           <dbl>       <dbl>        <dbl>       <dbl> <fct>  
##  1          5.1         3.5          1.4         0.2 setosa 
##  2          4.9         3            1.4         0.2 setosa 
##  3          4.7         3.2          1.3         0.2 setosa 
##  4          4.6         3.1          1.5         0.2 setosa 
##  5          5           3.6          1.4         0.2 setosa 
##  6          5.4         3.9          1.7         0.4 setosa 
##  7          4.6         3.4          1.4         0.3 setosa 
##  8          5           3.4          1.5         0.2 setosa 
##  9          4.4         2.9          1.4         0.2 setosa 
## 10          4.9         3.1          1.5         0.1 setosa 
## # … with 140 more rows
…
However, if every level of flower groups is dummy-coded, there would be no single group to compare to. For this reason, one group is typically selected as the reference group, to which every other group is compared.

13.5 Import Data

Now that we have some background on dummy codes, let’s return to the online science class data. We’ll be using the same dataset that we used in chapter 7. Let’s load that dataset now from the {dataedu} package.

dat <- dataedu::sci_mo_processed

To wrap up our discussion about factor variables, levels, and dummy codes, let’s look at how many classes are represented in the course_id variable. These classes will be our factor levels that we’ll be using in our model soon. We can use the count() function to see how many courses there are:

dat %>% 
  count(course_id)

## # A tibble: 26 x 2
##    course_id         n
##    <chr>         <int>
##  1 AnPhA-S116-01    43
##  2 AnPhA-S116-02    29
##  3 AnPhA-S216-01    43
##  4 AnPhA-S216-02    17
##  5 AnPhA-T116-01    11
##  6 BioA-S116-01     34
##  7 BioA-S216-01      7
##  8 BioA-T116-01      2
##  9 FrScA-S116-01    70
## 10 FrScA-S116-02    12
## # … with 16 more rows
…
