14 Walkthrough 8: Predicting students’ final grades using supervised machine learning methods | Data Science in Education Using R
…
interactions_summarized <- interactions %>% 
    group_by(id_student, code_module, code_presentation) %>% 
    summarize(sum_clicks = sum(sum_click))

## `summarise()` has grouped output by 'id_student', 'code_module'. You can
## override using the `.groups` argument.

interactions_summarized

## # A tibble: 29,160 × 4
## # Groups:   id_student, code_module [28,192]
##    id_student code_module code_presentation sum_clicks
##         <dbl> <chr>       <chr>                  <dbl>
##  1       6516 AAA         2014J                    999
##  2       8462 DDD         2013J                    516
##  3       8462 DDD         2014J                     10
##  4      11391 AAA         2013J                    528
##  5      23629 BBB         2013B                     84
##  6      23698 CCC         2014J                    503
##  7      23798 BBB         2013J                    277
##  8      24186 GGG         2014B                    118
##  9      24213 DDD         2014B                    642
## 10      24391 GGG         2013J                    424
## # ℹ 29,150 more rows
…
