28 Cleaning the Dataset | Data Science in Education Using R
…
filenames

## [1] "10a-walkthrough-6-data/bchildcountandedenvironments2012.csv"   
## [2] "10a-walkthrough-6-data/bchildcountandedenvironments2013.csv"   
## [3] "10a-walkthrough-6-data/bchildcountandedenvironments2014.csv"   
## [4] "10a-walkthrough-6-data/bchildcountandedenvironments2015.csv"   
## [5] "10a-walkthrough-6-data/bchildcountandedenvironments2016.csv"   
## [6] "10a-walkthrough-6-data/bchildcountandedenvironments2017-18.csv"

Once we know the 2016 dataset is the fifth element of our list, we can pluck it out by using double brackets:

all_files[[5]]

## # A tibble: 16,230 x 50
##    `2016` Alabama `Correctional F… `All Disabiliti… `-`   `-_1` `-_2` `-_3`
##     <dbl> <chr>   <chr>            <chr>            <chr> <chr> <chr> <chr>
##  1   2016 Alabama Home             All Disabilities 43    30    35    0    
##  2   2016 Alabama Homebound/Hospi… All Disabilities -     -     -     -    
##  3   2016 Alabama Inside regular … All Disabilities -     -     -     -    
##  4   2016 Alabama Inside regular … All Disabilities -     -     -     -    
##  5   2016 Alabama Inside regular … All Disabilities -     -     -     -    
##  6   2016 Alabama Parentally Plac… All Disabilities -     -     -     -    
##  7   2016 Alabama Residential Fac… All Disabilities 5     3     4     0    
##  8   2016 Alabama Residential Fac… All Disabilities -     -     -     -    
##  9   2016 Alabama Separate Class   All Disabilities 58    58    98    0    
## 10   2016 Alabama Separate School… All Disabilities 11    20    19    0    
## # … with 16,220 more rows, and 42 more variables: `-_4` <chr>,
## #   `-_5` <chr>, `-_6` <chr>, `-_7` <chr>, `-_8` <chr>, `-_9` <chr>,
## #   `-_10` <chr>, `-_11` <chr>, `-_12` <chr>, `-_13` <chr>, `-_14` <chr>,
## #   `0` <chr>, `0_1` <chr>, `0_2` <chr>, `0_3` <chr>, `0_4` <chr>,
## #   `0_5` <chr>, `0_6` <chr>, `0_7` <chr>, `0_8` <chr>, `1` <chr>,
## #   `2` <chr>, `4` <chr>, `14` <chr>, `22` <chr>, `30` <chr>, `4_1` <chr>,
## #   `0_9` <chr>, `7` <chr>, `70` <chr>, `77` <chr>, `0_10` <chr>,
## #   `77_1` <chr>, `1_1` <chr>, `76` <chr>, `0_11` <chr>, `0_12` <chr>,
## #   `68` <chr>, `0_13` <chr>, `0_14` <chr>, `0_15` <chr>, `9` <chr>
…
Now that we know all our datasets have the correct variable names, we simplify our datasets by picking the variables we need. This is a good place to think carefully about which variables to pick. This usually requires a fair amount of trial and error, but here is what we found we needed:

Our analytic questions are about gender, so let’s pick the gender variable

Later, we’ll need to filter our dataset by disability category and program location so we’ll want SEA Education Environment and SEA Disability Category

We want to make comparisons by state and reporting year, so we’ll also pick State Name and Year

Combining select and contains is a convenient way to pick these variables without writing a lot of code. Knowing that we want variables that contain the acronym “SEA” and variables that contain “male” in their names, we can pass those characters to contains:

all_files[[1]] %>% 
    select(Year, contains("State", ignore.case = FALSE), contains("SEA", ignore.case = FALSE), contains("male")) 

## # A tibble: 16,230 x 8
##     Year `State Name` `SEA Education … `SEA Disability… `Female Age 3 t…
##    <dbl> <chr>        <chr>            <chr>            <chr>           
##  1  2012 ALABAMA      Correctional Fa… All Disabilities -               
##  2  2012 ALABAMA      Home             All Disabilities 63              
##  3  2012 ALABAMA      Homebound/Hospi… All Disabilities -               
##  4  2012 ALABAMA      Inside regular … All Disabilities -               
##  5  2012 ALABAMA      Inside regular … All Disabilities -               
##  6  2012 ALABAMA      Inside regular … All Disabilities -               
##  7  2012 ALABAMA      Other Location … All Disabilities 573             
##  8  2012 ALABAMA      Other Location … All Disabilities 81              
##  9  2012 ALABAMA      Parentally Plac… All Disabilities -               
## 10  2012 ALABAMA      Residential Fac… All Disabilities 6               
## # … with 16,220 more rows, and 3 more variables: `Male Age 3 to 5` <chr>,
## #   `Female Age 6 to 21` <chr>, `Male Age 6 to 21` <chr>
…
28.8 Convert data types

The values in the total column represent the number of students from a specific year, state, gender, and age group. We know from the chr under their variable names that R is treating these values like characters instead of numbers. While R does a decent job of treating numbers like numbers when needed, it’s much safer to prepare the dataset by changing these character columns to number columns. We’ll use dplyr::mutate_at to change the count columns.

child_counts <- child_counts %>% 
    mutate(total = as.numeric(total)) 

## Warning: NAs introduced by coercion

child_counts

## # A tibble: 2,928 x 6
##     year state          age             disability       gender total
##    <dbl> <chr>          <chr>           <chr>            <chr>  <dbl>
##  1  2012 alabama        Total, Age 3-5  All Disabilities f       2228
##  2  2012 alabama        Total, Age 6-21 All Disabilities f         NA
##  3  2012 alaska         Total, Age 3-5  All Disabilities f        676
##  4  2012 alaska         Total, Age 6-21 All Disabilities f         NA
##  5  2012 american samoa Total, Age 3-5  All Disabilities f         45
##  6  2012 american samoa Total, Age 6-21 All Disabilities f         NA
##  7  2012 arizona        Total, Age 3-5  All Disabilities f       4743
##  8  2012 arizona        Total, Age 6-21 All Disabilities f         NA
##  9  2012 arkansas       Total, Age 3-5  All Disabilities f       4605
## 10  2012 arkansas       Total, Age 6-21 All Disabilities f         NA
## # … with 2,918 more rows
…
## The following object is masked from 'package:base':
## 
##     date

child_counts <- child_counts %>% 
    mutate(year = ymd(year, truncated = 2))

28.9 Explore and address NAs

You’ll notice that some rows in the total column contain an NA. When we used gather to create a gender column, R created unique rows for every year, state, age, disability, and gender combination. Since the original dataset had both gender and age range stored in a column like Female Age 3 to 5, R made rows where the total value is NA . For example, there is no student count for the age value “Total, Age 3-5” that also has the gender value for female students who were age 6-21. You can see that more clearly by sorting the dataset by year, state, and gender:

child_counts %>% 
    arrange(year, state, gender)

## # A tibble: 2,928 x 6
##    year       state   age             disability       gender total
##    <date>     <chr>   <chr>           <chr>            <chr>  <dbl>
##  1 2012-01-01 alabama Total, Age 3-5  All Disabilities f       2228
##  2 2012-01-01 alabama Total, Age 6-21 All Disabilities f         NA
##  3 2012-01-01 alabama Total, Age 3-5  All Disabilities f         NA
##  4 2012-01-01 alabama Total, Age 6-21 All Disabilities f      23649
##  5 2012-01-01 alabama Total, Age 3-5  All Disabilities m       5116
##  6 2012-01-01 alabama Total, Age 6-21 All Disabilities m         NA
##  7 2012-01-01 alabama Total, Age 3-5  All Disabilities m         NA
##  8 2012-01-01 alabama Total, Age 6-21 All Disabilities m      48712
##  9 2012-01-01 alaska  Total, Age 3-5  All Disabilities f        676
## 10 2012-01-01 alaska  Total, Age 6-21 All Disabilities f         NA
## # … with 2,918 more rows
…
males age 3-5

males age 6-21

Each of these categories will be associated with a state and reporting year:

child_counts <- child_counts %>% 
    filter(!is.na(total)) 

We can verify we have the categories we want by sorting again:

child_counts %>% 
    arrange(year, state, gender)

## # A tibble: 1,390 x 6
##    year       state          age             disability       gender total
##    <date>     <chr>          <chr>           <chr>            <chr>  <dbl>
##  1 2012-01-01 alabama        Total, Age 3-5  All Disabilities f       2228
##  2 2012-01-01 alabama        Total, Age 6-21 All Disabilities f      23649
##  3 2012-01-01 alabama        Total, Age 3-5  All Disabilities m       5116
##  4 2012-01-01 alabama        Total, Age 6-21 All Disabilities m      48712
##  5 2012-01-01 alaska         Total, Age 3-5  All Disabilities f        676
##  6 2012-01-01 alaska         Total, Age 6-21 All Disabilities f       5307
##  7 2012-01-01 alaska         Total, Age 3-5  All Disabilities m       1440
##  8 2012-01-01 alaska         Total, Age 6-21 All Disabilities m      10536
##  9 2012-01-01 american samoa Total, Age 3-5  All Disabilities f         45
## 10 2012-01-01 american samoa Total, Age 6-21 All Disabilities f        208
## # … with 1,380 more rows
