8 Education Dataset Analysis Pipeline: Walkthrough #1 | Data Science in Education Using R
…
s12_time_spent <-
  read_csv(here(
    "data",
    "online-science-motivation",
    "raw",
    "s12-course-minutes.csv"
  ))

8.3 Viewing the data

Now that we’ve successfully loaded all three logtrace datasets, we can visually inspect the data by typing the names that we assigned to each dataset.

s12_pre_survey

## # A tibble: 1,102 x 16
##    RespondentId StartDate CompletedDate LanguageCode opdata_CourseID
##           <dbl> <chr>     <chr>         <chr>        <chr>          
##  1       426746 2015.08.… <NA>          en           FrScA-S116-01  
##  2       426775 2015.08.… 2015.08.24 1… en           BioA-S116-01   
##  3       427483 2015.08.… <NA>          en           OcnA-S116-03   
##  4       429883 2015.09.… 2015.09.02 1… en           AnPhA-S116-01  
##  5       430158 2015.09.… 2015.09.03 9… en           AnPhA-S116-01  
##  6       430161 2015.09.… 2015.09.03 9… en           AnPhA-S116-02  
##  7       430162 2015.09.… 2015.09.03 9… en           AnPhA-T116-01  
##  8       430167 2015.09.… 2015.09.03 9… en           BioA-S116-01   
##  9       430170 2015.09.… 2015.09.03 9… en           BioA-T116-01   
## 10       430172 2015.09.… 2015.09.03 9… en           PhysA-S116-01  
## # … with 1,092 more rows, and 11 more variables: opdata_username <chr>,
## #   Q1MaincellgroupRow1 <dbl>, Q1MaincellgroupRow2 <dbl>,
## #   Q1MaincellgroupRow3 <dbl>, Q1MaincellgroupRow4 <dbl>,
## #   Q1MaincellgroupRow5 <dbl>, Q1MaincellgroupRow6 <dbl>,
## #   Q1MaincellgroupRow7 <dbl>, Q1MaincellgroupRow8 <dbl>,
## #   Q1MaincellgroupRow9 <dbl>, Q1MaincellgroupRow10 <dbl>

s12_course_data

## # A tibble: 29,711 x 16
##    CourseSectionOr… Bb_UserPK EnrollmentStatus EnrollmentReason Gender
##    <chr>                <dbl> <chr>            <chr>            <chr> 
##  1 AnPhA-S116-01        60186 Approved/Enroll… Course Unavaila… M     
##  2 AnPhA-S116-01        60186 Approved/Enroll… Course Unavaila… M     
##  3 AnPhA-S116-01        60186 Approved/Enroll… Course Unavaila… M     
##  4 AnPhA-S116-01        60186 Approved/Enroll… Course Unavaila… M     
##  5 AnPhA-S116-01        60186 Approved/Enroll… Course Unavaila… M     
##  6 AnPhA-S116-01        60186 Approved/Enroll… Course Unavaila… M     
##  7 AnPhA-S116-01        60186 Approved/Enroll… Course Unavaila… M     
##  8 AnPhA-S116-01        60186 Approved/Enroll… Course Unavaila… M     
##  9 AnPhA-S116-01        60186 Approved/Enroll… Course Unavaila… M     
## 10 AnPhA-S116-01        60186 Approved/Enroll… Course Unavaila… M     
## # … with 29,701 more rows, and 11 more variables: FinalGradeCEMS <dbl>,
## #   Gradebook_Item <chr>, Item_Position <dbl>, Gradebook_Type <chr>,
## #   Gradebook_Date <chr>, Grade_Category <chr>, Status <lgl>,
## #   Points_Earned <chr>, Points_Attempted <dbl>, Points_Possible <dbl>,
## #   last_access_date <time>

s12_time_spent

## # A tibble: 598 x 6
##    CourseID CourseSectionID CourseSectionOrigID Bb_UserPK   CUPK TimeSpent
##       <dbl>           <dbl> <chr>                   <dbl>  <dbl>     <dbl>
##  1       27           17146 OcnA-S116-01            44638 190682     1383.
##  2       27           17146 OcnA-S116-01            54346 194259     1191.
##  3       27           17146 OcnA-S116-01            57981 196014     3343.
##  4       27           17146 OcnA-S116-01            66740 190463      965.
##  5       27           17146 OcnA-S116-01            67920 191593     4095.
##  6       27           17146 OcnA-S116-01            85355 190104      595.
##  7       27           17146 OcnA-S116-01            85644 190685     1632.
##  8       27           17146 OcnA-S116-01            86349 191713     1601.
##  9       27           17146 OcnA-S116-01            86460 191887     1891.
## 10       27           17146 OcnA-S116-01            87970 194256     3123.
## # … with 588 more rows
…
Let’s start with the pre-survey data. We will rename RespondentID and opdata_CourseID to be student_id and course_id, respectively.

s12_pre_survey <-
  s12_pre_survey %>%
  rename(student_id = RespondentId,
         course_id = opdata_CourseID)

s12_pre_survey

## # A tibble: 1,102 x 16
##    student_id StartDate CompletedDate LanguageCode course_id opdata_username
##         <dbl> <chr>     <chr>         <chr>        <chr>     <chr>          
##  1     426746 2015.08.… <NA>          en           FrScA-S1… _80624_1       
##  2     426775 2015.08.… 2015.08.24 1… en           BioA-S11… _80623_1       
##  3     427483 2015.08.… <NA>          en           OcnA-S11… _82588_1       
##  4     429883 2015.09.… 2015.09.02 1… en           AnPhA-S1… _80623_1       
##  5     430158 2015.09.… 2015.09.03 9… en           AnPhA-S1… _80624_1       
##  6     430161 2015.09.… 2015.09.03 9… en           AnPhA-S1… _80624_1       
##  7     430162 2015.09.… 2015.09.03 9… en           AnPhA-T1… _80624_1       
##  8     430167 2015.09.… 2015.09.03 9… en           BioA-S11… _80624_1       
##  9     430170 2015.09.… 2015.09.03 9… en           BioA-T11… _80624_1       
## 10     430172 2015.09.… 2015.09.03 9… en           PhysA-S1… _80624_1       
## # … with 1,092 more rows, and 10 more variables: q1 <dbl>, q2 <dbl>, q3 <dbl>,
## #   q4 <dbl>, q5 <dbl>, q6 <dbl>, q7 <dbl>, q8 <dbl>, q9 <dbl>, q10 <dbl>
…
Now that we have two variables that are consistent across both datasets - we have called them “course_id” and “student_id” - we can join these using the dplyr function, left_join().

Let’s save our joined data as a new object called “dat.”

dat <-
  left_join(s12_course_data,
            s12_pre_survey,
            by = c("student_id", "course_id"))
dat

## # A tibble: 29,711 x 33
##    course_id subject semester section student_id EnrollmentStatus
##    <chr>     <chr>   <chr>    <chr>        <dbl> <chr>           
##  1 AnPhA-S1… AnPhA   S116     01           60186 Approved/Enroll…
##  2 AnPhA-S1… AnPhA   S116     01           60186 Approved/Enroll…
##  3 AnPhA-S1… AnPhA   S116     01           60186 Approved/Enroll…
##  4 AnPhA-S1… AnPhA   S116     01           60186 Approved/Enroll…
##  5 AnPhA-S1… AnPhA   S116     01           60186 Approved/Enroll…
##  6 AnPhA-S1… AnPhA   S116     01           60186 Approved/Enroll…
##  7 AnPhA-S1… AnPhA   S116     01           60186 Approved/Enroll…
##  8 AnPhA-S1… AnPhA   S116     01           60186 Approved/Enroll…
##  9 AnPhA-S1… AnPhA   S116     01           60186 Approved/Enroll…
## 10 AnPhA-S1… AnPhA   S116     01           60186 Approved/Enroll…
## # … with 29,701 more rows, and 27 more variables: EnrollmentReason <chr>,
## #   Gender <chr>, FinalGradeCEMS <dbl>, Gradebook_Item <chr>,
## #   Item_Position <dbl>, Gradebook_Type <chr>, Gradebook_Date <chr>,
## #   Grade_Category <chr>, Status <lgl>, Points_Earned <chr>,
## #   Points_Attempted <dbl>, Points_Possible <dbl>, last_access_date <time>,
## #   StartDate <chr>, CompletedDate <chr>, LanguageCode <chr>,
## #   opdata_username <chr>, q1 <dbl>, q2 <dbl>, q3 <dbl>, q4 <dbl>, q5 <dbl>,
## #   q6 <dbl>, q7 <dbl>, q8 <dbl>, q9 <dbl>, q10 <dbl>
…
dat <- 
  dat %>% 
  left_join(s12_time_spent, 
            by = c("student_id", "course_id"))

Note that they’re now combined, even though the course data has many more rows: The pre_survey data has been joined for each student by course combination.

We have a pretty large data frame! Let’s take a quick look.

dat

## # A tibble: 29,711 x 37
##    course_id subject semester section student_id EnrollmentStatus
##    <chr>     <chr>   <chr>    <chr>        <dbl> <chr>           
##  1 AnPhA-S1… AnPhA   S116     01           60186 Approved/Enroll…
##  2 AnPhA-S1… AnPhA   S116     01           60186 Approved/Enroll…
##  3 AnPhA-S1… AnPhA   S116     01           60186 Approved/Enroll…
##  4 AnPhA-S1… AnPhA   S116     01           60186 Approved/Enroll…
##  5 AnPhA-S1… AnPhA   S116     01           60186 Approved/Enroll…
##  6 AnPhA-S1… AnPhA   S116     01           60186 Approved/Enroll…
##  7 AnPhA-S1… AnPhA   S116     01           60186 Approved/Enroll…
##  8 AnPhA-S1… AnPhA   S116     01           60186 Approved/Enroll…
##  9 AnPhA-S1… AnPhA   S116     01           60186 Approved/Enroll…
## 10 AnPhA-S1… AnPhA   S116     01           60186 Approved/Enroll…
## # … with 29,701 more rows, and 31 more variables: EnrollmentReason <chr>,
## #   Gender <chr>, FinalGradeCEMS <dbl>, Gradebook_Item <chr>,
## #   Item_Position <dbl>, Gradebook_Type <chr>, Gradebook_Date <chr>,
## #   Grade_Category <chr>, Status <lgl>, Points_Earned <chr>,
## #   Points_Attempted <dbl>, Points_Possible <dbl>, last_access_date <time>,
## #   StartDate <chr>, CompletedDate <chr>, LanguageCode <chr>,
## #   opdata_username <chr>, q1 <dbl>, q2 <dbl>, q3 <dbl>, q4 <dbl>, q5 <dbl>,
## #   q6 <dbl>, q7 <dbl>, q8 <dbl>, q9 <dbl>, q10 <dbl>, CourseID <dbl>,
## #   CourseSectionID <dbl>, CUPK <dbl>, TimeSpent <dbl>
…
Were we to run distinct(dat, Gradebook_Item), what do you think would be
returned?

distinct(dat, Gradebook_Item)

## # A tibble: 222 x 1
##    Gradebook_Item                                             
##    <chr>                                                      
##  1 POINTS EARNED & TOTAL COURSE POINTS                        
##  2 WORK ATTEMPTED                                             
##  3 0-1.1: Intro Assignment - Send a Message to Your Instructor
##  4 0-1.2: Intro Assignment - DB #1                            
##  5 0-1.3: Intro Assignment - Submitting Files                 
##  6 1-1.1: Lesson 1-1 Graphic Organizer                        
##  7 1-2.1: Explore a Career Assignment                         
##  8 1-2.2: Explore a Career DB #2                              
##  9 PROGRESS CHECK 1 @ 02-18-16                                
## 10 1-2.3: Lesson 1-2 Graphic Organizer                        
## # … with 212 more rows

What is every distinct gradebook item is what is returned. You might be
wondering (as we were) whether some gradebook items have the same values across
courses; we can return the unique combination of courses and gradebook items
by simply adding another variable to distinct():

distinct(dat, course_id, Gradebook_Item)

## # A tibble: 1,269 x 2
##    course_id     Gradebook_Item                                             
##    <chr>         <chr>                                                      
##  1 FrScA-S216-02 POINTS EARNED & TOTAL COURSE POINTS                        
##  2 FrScA-S216-02 WORK ATTEMPTED                                             
##  3 FrScA-S216-02 0-1.1: Intro Assignment - Send a Message to Your Instructor
##  4 FrScA-S216-02 0-1.2: Intro Assignment - DB #1                            
##  5 FrScA-S216-02 0-1.3: Intro Assignment - Submitting Files                 
##  6 FrScA-S216-02 1-1.1: Lesson 1-1 Graphic Organizer                        
##  7 FrScA-S216-02 1-2.1: Explore a Career Assignment                         
##  8 FrScA-S216-02 1-2.2: Explore a Career DB #2                              
##  9 FrScA-S216-02 PROGRESS CHECK 1 @ 02-18-16                                
## 10 FrScA-S216-02 1-2.3: Lesson 1-2 Graphic Organizer                        
## # … with 1,259 more rows
…
survey_responses

## # A tibble: 920 x 4
## # Groups:   student_id [920]
##    student_id   int    pc    uv
##         <dbl> <dbl> <dbl> <dbl>
##  1     429883   1.8   3    1   
##  2     430158  NA    NA    1   
##  3     430161  NA     1   NA   
##  4     431821   4.4   3.5  4   
##  5     431864   4.4   5    3   
##  6     431889   3.8   3    3.67
##  7     431890   5     4    3.67
##  8     431909   4     3    3   
##  9     431949   3.8   3.5  3.33
## 10     431956   4     4    3.67
## # … with 910 more rows
…
