Chapter 27 Reading In Many Datasets | Data Science in Education Using R
…
Congratulations on finding an extremely common problem in education data! You’ve discovered that niehter the number of columns nor the column names match. This is a problem because we won’t be able to combine the datasets into one. When we try, bind_rows returns a dataet with 100 columns instead of the expected 50.

bind_rows(all_files)

## # A tibble: 97,386 x 100
##     Year `State Name` `SEA Education … `SEA Disability… `American India…
##    <dbl> <chr>        <chr>            <chr>            <chr>           
##  1  2012 ALABAMA      Correctional Fa… All Disabilities -               
##  2  2012 ALABAMA      Home             All Disabilities 1               
##  3  2012 ALABAMA      Homebound/Hospi… All Disabilities -               
##  4  2012 ALABAMA      Inside regular … All Disabilities -               
##  5  2012 ALABAMA      Inside regular … All Disabilities -               
##  6  2012 ALABAMA      Inside regular … All Disabilities -               
##  7  2012 ALABAMA      Other Location … All Disabilities 7               
##  8  2012 ALABAMA      Other Location … All Disabilities 1               
##  9  2012 ALABAMA      Parentally Plac… All Disabilities -               
## 10  2012 ALABAMA      Residential Fac… All Disabilities 0               
## # … with 97,376 more rows, and 95 more variables: `Asian Age 3-5` <chr>,
## #   `Black or African American Age 3-5` <chr>, `Hispanic/Latino Age
## #   3-5` <chr>, `Native Hawaiian or Other Pacific Islander Age 3-5` <chr>,
## #   `Two or More Races Age 3-5` <chr>, `White Age 3-5` <chr>, `Female Age
## #   3 to 5` <chr>, `Male Age 3 to 5` <chr>, `LEP Yes Age 3 to 5` <chr>,
## #   `LEP No Age 3 to 5` <chr>, `Age 3 to 5` <chr>, `Age 6-11` <chr>, `Age
## #   12-17` <chr>, `Age 18-21` <chr>, `Ages 6-21` <chr>, `LEP Yes Age 6 to
## #   21` <chr>, `LEP No Age 6 to 21` <chr>, `Female Age 6 to 21` <chr>,
## #   `Male Age 6 to 21` <chr>, `American Indian or Alaska Native Age 6
…
