11 Walkthrough 01: Title Here | Data Science in Education Using R
…
11.5 Viewing the Data

Now that we’ve successfully loaded all three logtrace datasets, we can visually inspect the data by typing the names that we assigned to each dataset.

s12_pre_survey 

## # A tibble: 1,102 x 16
##    RespondentId StartDate CompletedDate LanguageCode opdata_CourseID
##           <dbl> <chr>     <chr>         <chr>        <chr>          
##  1       426746 2015.08.… <NA>          en           FrScA-S116-01  
##  2       426775 2015.08.… 2015.08.24 1… en           BioA-S116-01   
##  3       427483 2015.08.… <NA>          en           OcnA-S116-03   
##  4       429883 2015.09.… 2015.09.02 1… en           AnPhA-S116-01  
##  5       430158 2015.09.… 2015.09.03 9… en           AnPhA-S116-01  
##  6       430161 2015.09.… 2015.09.03 9… en           AnPhA-S116-02  
##  7       430162 2015.09.… 2015.09.03 9… en           AnPhA-T116-01  
##  8       430167 2015.09.… 2015.09.03 9… en           BioA-S116-01   
##  9       430170 2015.09.… 2015.09.03 9… en           BioA-T116-01   
## 10       430172 2015.09.… 2015.09.03 9… en           PhysA-S116-01  
## # … with 1,092 more rows, and 11 more variables: opdata_username <chr>,
## #   Q1MaincellgroupRow1 <dbl>, Q1MaincellgroupRow2 <dbl>,
## #   Q1MaincellgroupRow3 <dbl>, Q1MaincellgroupRow4 <dbl>,
## #   Q1MaincellgroupRow5 <dbl>, Q1MaincellgroupRow6 <dbl>,
## #   Q1MaincellgroupRow7 <dbl>, Q1MaincellgroupRow8 <dbl>,
## #   Q1MaincellgroupRow9 <dbl>, Q1MaincellgroupRow10 <dbl>

s12_course_data

## # A tibble: 29,711 x 16
##    CourseSectionOr… Bb_UserPK EnrollmentStatus EnrollmentReason Gender
##    <chr>                <dbl> <chr>            <chr>            <chr> 
##  1 AnPhA-S116-01        60186 Approved/Enroll… Course Unavaila… M     
##  2 AnPhA-S116-01        60186 Approved/Enroll… Course Unavaila… M     
##  3 AnPhA-S116-01        60186 Approved/Enroll… Course Unavaila… M     
##  4 AnPhA-S116-01        60186 Approved/Enroll… Course Unavaila… M     
##  5 AnPhA-S116-01        60186 Approved/Enroll… Course Unavaila… M     
##  6 AnPhA-S116-01        60186 Approved/Enroll… Course Unavaila… M     
##  7 AnPhA-S116-01        60186 Approved/Enroll… Course Unavaila… M     
##  8 AnPhA-S116-01        60186 Approved/Enroll… Course Unavaila… M     
##  9 AnPhA-S116-01        60186 Approved/Enroll… Course Unavaila… M     
## 10 AnPhA-S116-01        60186 Approved/Enroll… Course Unavaila… M     
## # … with 29,701 more rows, and 11 more variables: FinalGradeCEMS <dbl>,
## #   Gradebook_Item <chr>, Item_Position <dbl>, Gradebook_Type <chr>,
## #   Gradebook_Date <chr>, Grade_Category <chr>, Status <lgl>,
## #   Points_Earned <chr>, Points_Attempted <dbl>, Points_Possible <dbl>,
## #   last_access_date <time>

s12_time_spent

## # A tibble: 598 x 6
##    CourseID CourseSectionID CourseSectionOrigID Bb_UserPK   CUPK TimeSpent
##       <dbl>           <dbl> <chr>                   <dbl>  <dbl>     <dbl>
##  1       27           17146 OcnA-S116-01            44638 190682     1383.
##  2       27           17146 OcnA-S116-01            54346 194259     1191.
##  3       27           17146 OcnA-S116-01            57981 196014     3343.
##  4       27           17146 OcnA-S116-01            66740 190463      965.
##  5       27           17146 OcnA-S116-01            67920 191593     4095.
##  6       27           17146 OcnA-S116-01            85355 190104      595.
##  7       27           17146 OcnA-S116-01            85644 190685     1632.
##  8       27           17146 OcnA-S116-01            86349 191713     1601.
##  9       27           17146 OcnA-S116-01            86460 191887     1891.
## 10       27           17146 OcnA-S116-01            87970 194256     3123.
## # … with 588 more rows
…
11.7 Joining the Data

To join the course data and pre-survey data, we need to create similar keys. In other words, our goal here is to have one variable that matches across both datasets, so that we can merge the datasets on the basis of that variable.

For these data, both have variables for the course and the student, though they have different names in each. Our first goal will be to rename two variables in each of our datasets so that they will match. One variable will correspond to the course, and the other will correspond to the student. We are not changing anything in the data itself at this step - instead, we are just cleaning it up so that we can look at the data all in one place.

Let’s start with the pre-survey data. We will rename RespondentID and opdata_CourseID to be student_id and course_id, respectively.

s12_pre_survey <- s12_pre_survey %>% 
    rename(student_id = RespondentId,
           course_id = opdata_CourseID)

s12_pre_survey

## # A tibble: 1,102 x 16
##    student_id StartDate CompletedDate LanguageCode course_id
##         <dbl> <chr>     <chr>         <chr>        <chr>    
##  1     426746 2015.08.… <NA>          en           FrScA-S1…
##  2     426775 2015.08.… 2015.08.24 1… en           BioA-S11…
##  3     427483 2015.08.… <NA>          en           OcnA-S11…
##  4     429883 2015.09.… 2015.09.02 1… en           AnPhA-S1…
##  5     430158 2015.09.… 2015.09.03 9… en           AnPhA-S1…
##  6     430161 2015.09.… 2015.09.03 9… en           AnPhA-S1…
##  7     430162 2015.09.… 2015.09.03 9… en           AnPhA-T1…
##  8     430167 2015.09.… 2015.09.03 9… en           BioA-S11…
##  9     430170 2015.09.… 2015.09.03 9… en           BioA-T11…
## 10     430172 2015.09.… 2015.09.03 9… en           PhysA-S1…
## # … with 1,092 more rows, and 11 more variables: opdata_username <chr>,
## #   q1 <dbl>, q2 <dbl>, q3 <dbl>, q4 <dbl>, q5 <dbl>, q6 <dbl>, q7 <dbl>,
## #   q8 <dbl>, q9 <dbl>, q10 <dbl>

Looks better now!

Let’s proceed to the course data. Our goal is to rename two variables that correspond to the course and the student so that we can match with the other variables we just created for the pre-survey data.

s12_course_data <- s12_course_data %>% 
    rename(student_id = Bb_UserPK,
           course_id = CourseSectionOrigID)

s12_course_data

## # A tibble: 29,711 x 19
##    course_id subject semester section student_id EnrollmentStatus
##    <chr>     <chr>   <chr>    <chr>        <dbl> <chr>           
##  1 AnPhA-S1… AnPhA   S116     01           60186 Approved/Enroll…
##  2 AnPhA-S1… AnPhA   S116     01           60186 Approved/Enroll…
##  3 AnPhA-S1… AnPhA   S116     01           60186 Approved/Enroll…
##  4 AnPhA-S1… AnPhA   S116     01           60186 Approved/Enroll…
##  5 AnPhA-S1… AnPhA   S116     01           60186 Approved/Enroll…
##  6 AnPhA-S1… AnPhA   S116     01           60186 Approved/Enroll…
##  7 AnPhA-S1… AnPhA   S116     01           60186 Approved/Enroll…
##  8 AnPhA-S1… AnPhA   S116     01           60186 Approved/Enroll…
##  9 AnPhA-S1… AnPhA   S116     01           60186 Approved/Enroll…
## 10 AnPhA-S1… AnPhA   S116     01           60186 Approved/Enroll…
## # … with 29,701 more rows, and 13 more variables: EnrollmentReason <chr>,
## #   Gender <chr>, FinalGradeCEMS <dbl>, Gradebook_Item <chr>,
## #   Item_Position <dbl>, Gradebook_Type <chr>, Gradebook_Date <chr>,
## #   Grade_Category <chr>, Status <lgl>, Points_Earned <chr>,
## #   Points_Attempted <dbl>, Points_Possible <dbl>, last_access_date <time>

Now that we have two variables that are consistent across both datasets - we have called them “course_id” and “student_id” - we can join these using the dplyr function, left_join().

Let’s save our joined data as a new object called “dat.”

dat <- left_join(s12_course_data, 
                 s12_pre_survey, 
                 by = c("student_id", "course_id"))

dat

## # A tibble: 29,711 x 33
##    course_id subject semester section student_id EnrollmentStatus
##    <chr>     <chr>   <chr>    <chr>        <dbl> <chr>           
##  1 AnPhA-S1… AnPhA   S116     01           60186 Approved/Enroll…
##  2 AnPhA-S1… AnPhA   S116     01           60186 Approved/Enroll…
##  3 AnPhA-S1… AnPhA   S116     01           60186 Approved/Enroll…
##  4 AnPhA-S1… AnPhA   S116     01           60186 Approved/Enroll…
##  5 AnPhA-S1… AnPhA   S116     01           60186 Approved/Enroll…
##  6 AnPhA-S1… AnPhA   S116     01           60186 Approved/Enroll…
##  7 AnPhA-S1… AnPhA   S116     01           60186 Approved/Enroll…
##  8 AnPhA-S1… AnPhA   S116     01           60186 Approved/Enroll…
##  9 AnPhA-S1… AnPhA   S116     01           60186 Approved/Enroll…
## 10 AnPhA-S1… AnPhA   S116     01           60186 Approved/Enroll…
## # … with 29,701 more rows, and 27 more variables: EnrollmentReason <chr>,
## #   Gender <chr>, FinalGradeCEMS <dbl>, Gradebook_Item <chr>,
## #   Item_Position <dbl>, Gradebook_Type <chr>, Gradebook_Date <chr>,
## #   Grade_Category <chr>, Status <lgl>, Points_Earned <chr>,
## #   Points_Attempted <dbl>, Points_Possible <dbl>,
## #   last_access_date <time>, StartDate <chr>, CompletedDate <chr>,
## #   LanguageCode <chr>, opdata_username <chr>, q1 <dbl>, q2 <dbl>,
## #   q3 <dbl>, q4 <dbl>, q5 <dbl>, q6 <dbl>, q7 <dbl>, q8 <dbl>, q9 <dbl>,
## #   q10 <dbl>
…
Note that they’re now combined, even though the course data has many more rows: The pre_survey data has been joined for each student by course combination.

We have a pretty large data frame! Let’s take a quick look.

dat

## # A tibble: 29,711 x 37
##    course_id subject semester section student_id EnrollmentStatus
##    <chr>     <chr>   <chr>    <chr>        <dbl> <chr>           
##  1 AnPhA-S1… AnPhA   S116     01           60186 Approved/Enroll…
##  2 AnPhA-S1… AnPhA   S116     01           60186 Approved/Enroll…
##  3 AnPhA-S1… AnPhA   S116     01           60186 Approved/Enroll…
##  4 AnPhA-S1… AnPhA   S116     01           60186 Approved/Enroll…
##  5 AnPhA-S1… AnPhA   S116     01           60186 Approved/Enroll…
##  6 AnPhA-S1… AnPhA   S116     01           60186 Approved/Enroll…
##  7 AnPhA-S1… AnPhA   S116     01           60186 Approved/Enroll…
##  8 AnPhA-S1… AnPhA   S116     01           60186 Approved/Enroll…
##  9 AnPhA-S1… AnPhA   S116     01           60186 Approved/Enroll…
## 10 AnPhA-S1… AnPhA   S116     01           60186 Approved/Enroll…
## # … with 29,701 more rows, and 31 more variables: EnrollmentReason <chr>,
## #   Gender <chr>, FinalGradeCEMS <dbl>, Gradebook_Item <chr>,
## #   Item_Position <dbl>, Gradebook_Type <chr>, Gradebook_Date <chr>,
## #   Grade_Category <chr>, Status <lgl>, Points_Earned <chr>,
## #   Points_Attempted <dbl>, Points_Possible <dbl>,
## #   last_access_date <time>, StartDate <chr>, CompletedDate <chr>,
## #   LanguageCode <chr>, opdata_username <chr>, q1 <dbl>, q2 <dbl>,
## #   q3 <dbl>, q4 <dbl>, q5 <dbl>, q6 <dbl>, q7 <dbl>, q8 <dbl>, q9 <dbl>,
## #   q10 <dbl>, CourseID <dbl>, CourseSectionID <dbl>, CUPK <dbl>,
…
